<svg width="30" height="30" viewBox="0 0 30 30" fill="none" xmlns="http://www.w3.org/2000/svg">
<path d="M17.8195 28.1999C17.7469 28.1999 17.6742 28.1858 17.6039 28.16C17.4539 28.1014 17.3344 27.9866 17.2687 27.8389L13.7672 19.7436L9.41015 23.8381C9.23671 24.0022 8.98124 24.0444 8.76093 23.9506C8.54296 23.8569 8.39999 23.6389 8.39999 23.3999V3.59987C8.39999 3.3608 8.54062 3.14518 8.76093 3.04908C8.9789 2.95533 9.23437 2.99752 9.41015 3.16158L23.8101 16.6006C23.9836 16.7624 24.0445 17.0131 23.9672 17.2358C23.8898 17.4608 23.6883 17.6178 23.4516 17.6389L17.3414 18.1639L21.0047 26.1514C21.0703 26.2944 21.0773 26.4608 21.0211 26.6108C20.9648 26.7608 20.8547 26.8803 20.7094 26.946L18.068 28.146C17.9883 28.1811 17.9062 28.1999 17.8195 28.1999Z" fill="#CCCCCC"/>
</svg>
